{
  "LuaSnip": { "branch": "master", "commit": "2dbef19461198630b3d7c39f414d09fb07d1fdd2" },
  "catppuccin": { "branch": "main", "commit": "afab7ec2a79c7127627dede79c0018b6e45663d0" },
  "cmp-nvim-lsp": { "branch": "main", "commit": "5af77f54de1b16c34b23cba810150689a3a90312" },
  "lazy.nvim": { "branch": "main", "commit": "aedcd79811d491b60d0a6577a9c1701063c2a609" },
  "lsp-zero.nvim": { "branch": "v3.x", "commit": "c129311f4867675a52551b0a7ef12186308be00b" },
  "mason-lspconfig.nvim": { "branch": "main", "commit": "b9084b1f42f790d6230dc66dbcb6bcc35b148552" },
  "mason.nvim": { "branch": "main", "commit": "dcd0ea30ccfc7d47e879878d1270d6847a519181" },
  "nvim-cmp": { "branch": "main", "commit": "538e37ba87284942c1d76ed38dd497e54e65b891" },
  "nvim-lspconfig": { "branch": "master", "commit": "8917d2c830e04bf944a699b8c41f097621283828" },
  "nvim-tree.lua": { "branch": "master", "commit": "f1b3e6a7eb92da492bd693257367d9256839ed3d" },
  "nvim-web-devicons": { "branch": "master", "commit": "b427ac5f9dff494f839e81441fb3f04a58cbcfbc" },
  "plenary.nvim": { "branch": "master", "commit": "663246936325062427597964d81d30eaa42ab1e4" },
  "telescope.nvim": { "branch": "0.1.x", "commit": "d90956833d7c27e73c621a61f20b29fdb7122709" },
  "trouble.nvim": { "branch": "main", "commit": "f1168feada93c0154ede4d1fe9183bf69bac54ea" },
  "which-key.nvim": { "branch": "main", "commit": "4433e5ec9a507e5097571ed55c02ea9658fb268a" }
}